…
## Uncertainty Upper - Numeric, free, mandatory

`UNCERTAINTY_UPPER`

## Uncertainty Lower - Numeric, free, mandatory

`UNCERTAINTY_LOWER`

## Measured Unit - String, controlled, mandatory

`MEASURED_UNIT`

``` r
parameter_unit_vocabulary()
#> # A tibble: 64 × 4
#>    MEASURED_UNIT BASE_SI_UNIT CONVERSION_FACTOR UNIT_COMMENTS      
#>    <chr>         <chr>        <chr>             <chr>              
#>  1 mg/L          kg/m³        1e-3              mass concentration 
#>  2 μg/L          kg/m³        1e-6              mass concentration 
#>  3 ng/L          kg/m³        1e-9              mass concentration 
#>  4 pg/L          kg/m³        1e-12             mass concentration 
#>  5 mol/L         mol/m³       1000              molar concentration
#>  6 mmol/L        mol/m³       1                 molar concentration
#>  7 μmol/L        mol/m³       1e-3              molar concentration
#>  8 nmol/L        mol/m³       1e-6              molar concentration
#>  9 pmol/L        mol/m³       1e-9              molar concentration
#> 10 M             mol/m³       1000              molar concentration
#> # ℹ 54 more rows
```
…
## Measured N - Numeric, free, mandatory

`MEASURED_N`

## LOQ Value - Numeric, free, mandatory

`LOQ_VALUE`

## LOQ Unit - String, controlled, mandatory

`LOQ_UNIT`

``` r
parameter_unit_vocabulary()
#> # A tibble: 64 × 4
#>    MEASURED_UNIT BASE_SI_UNIT CONVERSION_FACTOR UNIT_COMMENTS      
#>    <chr>         <chr>        <chr>             <chr>              
#>  1 mg/L          kg/m³        1e-3              mass concentration 
#>  2 μg/L          kg/m³        1e-6              mass concentration 
#>  3 ng/L          kg/m³        1e-9              mass concentration 
#>  4 pg/L          kg/m³        1e-12             mass concentration 
#>  5 mol/L         mol/m³       1000              molar concentration
#>  6 mmol/L        mol/m³       1                 molar concentration
#>  7 μmol/L        mol/m³       1e-3              molar concentration
#>  8 nmol/L        mol/m³       1e-6              molar concentration
#>  9 pmol/L        mol/m³       1e-9              molar concentration
#> 10 M             mol/m³       1000              molar concentration
#> # ℹ 54 more rows
```

### Controlled Vocabulary

## LOD Value - Numeric, free, mandatory

`LOD_VALUE`

## LOD Unit - String, controlled, mandatory

`LOD_UNIT`

``` r
parameter_unit_vocabulary()
#> # A tibble: 64 × 4
#>    MEASURED_UNIT BASE_SI_UNIT CONVERSION_FACTOR UNIT_COMMENTS      
#>    <chr>         <chr>        <chr>             <chr>              
#>  1 mg/L          kg/m³        1e-3              mass concentration 
#>  2 μg/L          kg/m³        1e-6              mass concentration 
#>  3 ng/L          kg/m³        1e-9              mass concentration 
#>  4 pg/L          kg/m³        1e-12             mass concentration 
#>  5 mol/L         mol/m³       1000              molar concentration
#>  6 mmol/L        mol/m³       1                 molar concentration
#>  7 μmol/L        mol/m³       1e-3              molar concentration
#>  8 nmol/L        mol/m³       1e-6              molar concentration
#>  9 pmol/L        mol/m³       1e-9              molar concentration
#> 10 M             mol/m³       1000              molar concentration
#> # ℹ 54 more rows
```

### Controlled Vocabulary

## Sampling Protocol - String, controlled, mandatory

`SAMPLING_PROTOCOL`

``` r
sampling_protocols_vocabulary()
#> # A tibble: 22 × 3
#>    Protocol_Type     Short_Name     Long_Name            
#>    <chr>             <chr>          <chr>                
#>  1 Sampling Protocol Not relevant   Not relevant         
#>  2 Sampling Protocol Not reported   Not reported         
#>  3 Sampling Protocol Point          Point sampling       
#>  4 Sampling Protocol Composite      Composite sampling   
#>  5 Sampling Protocol Trawl          Trawl sampling       
#>  6 Sampling Protocol Grab           Grab sampling        
#>  7 Sampling Protocol Core           Core sampling        
#>  8 Sampling Protocol Seine net      Seine net sampling   
#>  9 Sampling Protocol Electrofishing Electrofishing       
#> 10 Sampling Protocol Plankton net   Plankton net sampling
#> # ℹ 12 more rows
```
…
